{
  "swagger": "2.0",
  "info": {
    "title": "Rest API",
    "description": "HelpFitness Rest",
    "version": "1.0.0"
  },
  "host": "https://help-fitness.herokuapp.com",
  "schemes": [
    "httpss"
  ],
  "basePath": "/",
  "produces": [
    "application/json"
  ],
  "paths": {
    "/login/register/mock": {
      "post": {
        "summary": "User Register",
        "description": "Post user register.\n",
        "parameters": [
          {
            "name": "User",
            "in": "body",
            "required": true,
            "description": "user",
            "schema": {
              "type": "object",
              "required": [
                "email",
                "name",
                "password",
                "date_birth",
                "cell_phone",
                "genre"
              ],
              "properties": {
                "email": {
                  "type": "string"
                },
                "name": {
                  "type": "string"
                },
                "password": {
                  "type": "string",
                  "description": "Entre 8 e 12 caracteres.",
                  "minLength": 8,
                  "maxLength": 10
                },
                "date_birth": {
                  "type": "string",
                  "format": "date-time"
                },
                "cell_phone": {
                  "type": "string"
                },
                "genre": {
                  "type": "string"
                }
              }
            }
          }
        ],
        "tags": [
          "User register"
        ],
        "responses": {
          "200": {
            "message": {
              "type": "string",
              "description": "Usuário cadastrado com sucesso."
            }
          },
          "400": {
            "description": "Erros.",
            "schema": {
              "type": "array",
              "items": {
                "type": "object",
                "properties": {
                  "location": {
                    "type": "string"
                  },
                  "param": {
                    "type": "string"
                  },
                  "msg": {
                    "type": "string"
                  }
                }
              }
            }
          },
          "403": {
            "schema": {
              "type": "object",
              "properties": {
                "message": {
                  "type": "string",
                  "description": "Usuário já cadastrado."
                }
              }
            }
          },
          "500": {
            "schema": {
              "type": "object",
              "properties": {
                "message": {
                  "type": "string",
                  "description": "Não foi possível efetuar o cadastro, tente novamente mais tarde."
                }
              }
            }
          }
        }
      }
    },
    "/login/signUp/mock": {
      "post": {
        "summary": "User Login",
        "description": "Post user login.\n",
        "parameters": [
          {
            "name": "body",
            "in": "body",
            "required": true,
            "description": "object",
            "schema": {
              "type": "object",
              "required": [
                "email",
                "password"
              ],
              "properties": {
                "email": {
                  "type": "string"
                },
                "password": {
                  "type": "string"
                }
              }
            }
          }
        ],
        "tags": [
          "User login"
        ],
        "responses": {
          "200": {
            "description": "object",
            "schema": {
              "type": "object",
              "required": [
                "token"
              ],
              "properties": {
                "token": {
                  "type": "string"
                }
              }
            }
          },
          "400": {
            "description": "Erros.",
            "schema": {
              "type": "array",
              "items": {
                "type": "object",
                "properties": {
                  "location": {
                    "type": "string"
                  },
                  "param": {
                    "type": "string"
                  },
                  "msg": {
                    "type": "string"
                  }
                }
              }
            }
          },
          "401": {
            "schema": {
              "type": "object",
              "properties": {
                "message": {
                  "type": "string",
                  "description": "Usuário ou senha inválido."
                }
              }
            }
          },
          "403": {
            "schema": {
              "type": "object",
              "properties": {
                "message": {
                  "type": "string",
                  "description": "Usuário não cadastrado."
                }
              }
            }
          },
          "500": {
            "schema": {
              "type": "object",
              "properties": {
                "message": {
                  "type": "string",
                  "description": "Não foi possível efetuar o login, tente novamente mais tarde."
                }
              }
            }
          }
        }
      }
    },
    "/muscles/{idMuscle}/exercises/mock": {
      "get": {
        "summary": "Get Exercises",
        "description": "Get exercises.\n",
        "parameters": [
          {
            "name": "idMuscle",
            "in": "path",
            "type": "number",
            "required": true
          }
        ],
        "tags": [
          "Get Exercises"
        ],
        "responses": {
          "200": {
            "schema": {
              "type": "array",
              "items": {
                "type": "object",
                "properties": {
                  "id": {
                    "type": "number"
                  },
                  "name": {
                    "type": "string"
                  },
                  "level": {
                    "type": "number"
                  }
                }
              }
            }
          },
          "201": {
            "schema": {
              "type": "array",
              "items": {
                "type": "object",
                "properties": null
              }
            }
          },
          "401": {
            "message": {
              "type": "string",
              "description": "Não autorizado."
            }
          },
          "500": {
            "message": {
              "type": "string",
              "description": "Não foi possível carregar as informações."
            }
          }
        }
      }
    },
    "/muscles/{idMuscle}/exercises/{idExercise}/detail/mock": {
      "get": {
        "summary": "Exercise Detail",
        "description": "Exercise Detail.\n",
        "parameters": [
          {
            "name": "idMuscle",
            "in": "path",
            "type": "number",
            "required": true
          },
          {
            "name": "idExercise",
            "in": "path",
            "type": "number",
            "required": true
          }
        ],
        "tags": [
          "Exercise Detail"
        ],
        "responses": {
          "200": {
            "schema": {
              "type": "object",
              "properties": {
                "id": {
                  "type": "number"
                },
                "name": {
                  "type": "string"
                },
                "description": {
                  "type": "string"
                },
                "level": {
                  "type": "number"
                },
                "image": {
                  "type": "string",
                  "description": "https://help-fitness.herokuapp.com/images/muscles/{idMuscle}/exercises/{idExercise}"
                },
                "steps": {
                  "type": "array",
                  "items": {
                    "type": "object",
                    "properties": {
                      "step": {
                        "type": "string"
                      },
                      "iamge": {
                        "type": "string",
                        "description": "https://help-fitness.herokuapp.com/images/muscles/{idMuscle}/exercises/{idExercise}/step/{idStep}"
                      }
                    }
                  }
                },
                "requested_muscles": {
                  "type": "array",
                  "items": {
                    "type": "string"
                  }
                }
              }
            }
          },
          "401": {
            "message": {
              "type": "string",
              "description": "Não autorizado."
            }
          },
          "500": {
            "message": {
              "type": "string",
              "description": "Não foi possível carregar as informações."
            }
          }
        }
      }
    }
  }
}
