{
    "tables": {
        "Goals": {
            "tableName": "Goals",
            "schema": {
                "id": {
                    "allowNull": false,
                    "primaryKey": true,
                    "autoIncrement": true,
                    "field": "id",
                    "seqType": "Sequelize.INTEGER"
                },
                "description": {
                    "field": "description",
                    "seqType": "Sequelize.STRING"
                }
            },
            "indexes": []
        },
        "Users": {
            "tableName": "Users",
            "schema": {
                "id_user": {
                    "allowNull": false,
                    "primaryKey": true,
                    "defaultValue": {
                        "value": "55df1390-aa96-11e9-9193-cf63f601cdcb"
                    },
                    "field": "id_user",
                    "seqType": "Sequelize.UUID"
                },
                "name": {
                    "field": "name",
                    "seqType": "Sequelize.STRING(70)"
                },
                "password": {
                    "field": "password",
                    "seqType": "Sequelize.STRING(50)"
                },
                "email": {
                    "field": "email",
                    "seqType": "Sequelize.STRING(50)"
                },
                "cell_phone": {
                    "field": "cell_phone",
                    "seqType": "Sequelize.STRING(50)"
                },
                "method": {
                    "field": "method",
                    "seqType": "Sequelize.STRING(20)"
                },
                "genre": {
                    "field": "genre",
                    "seqType": "Sequelize.STRING(1)"
                },
                "date_birth": {
                    "field": "date_birth",
                    "seqType": "Sequelize.DATE"
                },
                "active": {
                    "defaultValue": {
                        "value": false
                    },
                    "field": "active",
                    "seqType": "Sequelize.BOOLEAN"
                }
            },
            "indexes": []
        },
        "validation_codes": {
            "tableName": "validation_codes",
            "schema": {
                "id_code": {
                    "allowNull": false,
                    "primaryKey": true,
                    "defaultValue": {
                        "value": "55dfd6e0-aa96-11e9-9193-cf63f601cdcb"
                    },
                    "field": "id_code",
                    "seqType": "Sequelize.UUID"
                },
                "id_user": {
                    "allowNull": false,
                    "defaultValue": {
                        "value": "55dfd6e1-aa96-11e9-9193-cf63f601cdcb"
                    },
                    "field": "id_user",
                    "seqType": "Sequelize.UUID"
                },
                "code": {
                    "field": "code",
                    "seqType": "Sequelize.STRING(4)"
                },
                "active": {
                    "defaultValue": {
                        "value": false
                    },
                    "field": "active",
                    "seqType": "Sequelize.BOOLEAN"
                }
            },
            "indexes": []
        }
    },
    "revision": 1
}